﻿<?xml version='1.0' encoding='UTF-8'?>
<svg x="0px" y="0px" viewBox="0 0 32 32" version="1.1" xmlns="http://www.w3.org/2000/svg" xmlns:xlink="http://www.w3.org/1999/xlink" xml:space="preserve" id="Layer_1" style="enable-background:new 0 0 32 32">
  <style type="text/css">
	.Blue{fill:#1177D7;}
	.Green{fill:#039C23;}
	.Yellow{fill:#FFB115;}
	.Black{fill:#727272;}
	.White{fill:#FFFFFF;}
	.Red{fill:#D11C1C;}
	.st0{opacity:0.75;}
</style>
  <g id="Bank">
    <polygon points="16,4 2,12 30,12  " class="Black" />
    <rect x="14" y="14" width="4" height="8" rx="0" ry="0" class="Black" />
    <rect x="20" y="14" width="4" height="8" rx="0" ry="0" class="Black" />
    <rect x="4" y="24" width="24" height="4" rx="0" ry="0" class="Black" />
    <rect x="8" y="14" width="4" height="8" rx="0" ry="0" class="Black" />
  </g>
</svg>