﻿<?xml version='1.0' encoding='UTF-8'?>
<svg x="0px" y="0px" viewBox="0 0 32 32" version="1.1" xmlns="http://www.w3.org/2000/svg" xmlns:xlink="http://www.w3.org/1999/xlink" xml:space="preserve" id="Layer_1" style="enable-background:new 0 0 32 32">
  <style type="text/css">
	.Blue{fill:#1177D7;}
	.Green{fill:#039C23;}
	.Yellow{fill:#FFB115;}
	.Black{fill:#727272;}
	.White{fill:#FFFFFF;}
	.Red{fill:#D11C1C;}
	.st0{opacity:0.75;}
</style>
  <g id="Cash">
    <path d="M29,8H3C2.5,8,2,8.5,2,9v14c0,0.5,0.5,1,1,1h26c0.5,0,1-0.5,1-1V9C30,8.5,29.5,8,29,8z M28,18   c-2.2,0-4,1.8-4,4H8c0-2.2-1.8-4-4-4v-4c2.2,0,4-1.8,4-4h16c0,2.2,1.8,4,4,4V18z" class="Green" />
    <circle cx="16" cy="16" r="4" class="Green" />
  </g>
</svg>